…
Next we will use a quick plot or qplot from ggplot2. First we will load the pizza patents by country and year dataset from the Github repository using readr. First you may need to install the readr package and/or lead the library. If you have the tidyverse installed then you will simply need to load the library.

install.packages("readr")

Load the library.

library(readr)

Now read in the dataset from the Github respository (if you have it downloaded already you could load by inserting the path to your local file inside the quotes).

pcy <- read_csv("https://github.com/poldham/opensource-patent-analytics/raw/master/2_datasets/pizza_medium_clean/pcy.csv")
pcy

## # A tibble: 325 x 4
##    pubcountry pubcode pubyear     n
##    <chr>      <chr>     <int> <int>
##  1 Canada     CA         1968     1
##  2 Canada     CA         1971     2
##  3 Canada     CA         1972     4
##  4 Canada     CA         1974     1
##  5 Canada     CA         1975     1
##  6 Canada     CA         1976     1
##  7 Canada     CA         1977     1
##  8 Canada     CA         1978     4
##  9 Canada     CA         1979     8
## 10 Canada     CA         1980    11
## # ... with 315 more rows
…
