…
The choice you make will partly depend on the information that you have at hand. However, in reality you will often end up using the second option for reasons we will explore below.

Basic Searching

rorcid divides calls to the API up into a range of functions providing access to distinct chunks of data. We will start with a simple query using orcid(). If we use a simple open query we will get a lot of results back (up to the default maximum of 100).

One tip when exploring ORCID is to use yourself as the example… because you should know what the right answer is. You can also use the fictitious, but incomplete, ORCID profile for Josiah Carberry, a specialist in psychoceramics, at https://orcid.org/0000-0002-1825-0097.

I’ll just run a simple open search.

oldham <- orcid(query = "paul oldham")
oldham

## # A tibble: 100 x 3
##    `orcid-identifier.uri`                `orcid-identifi… `orcid-identifi…
##  * <chr>                                 <chr>            <chr>           
##  1 https://orcid.org/0000-0002-0628-5540 0000-0002-0628-… orcid.org       
##  2 https://orcid.org/0000-0002-1013-4390 0000-0002-1013-… orcid.org       
##  3 https://orcid.org/0000-0003-1938-0798 0000-0003-1938-… orcid.org       
##  4 https://orcid.org/0000-0002-4058-1490 0000-0002-4058-… orcid.org       
##  5 https://orcid.org/0000-0001-5920-3804 0000-0001-5920-… orcid.org       
##  6 https://orcid.org/0000-0002-2440-8444 0000-0002-2440-… orcid.org       
##  7 https://orcid.org/0000-0001-5141-827X 0000-0001-5141-… orcid.org       
##  8 https://orcid.org/0000-0002-1800-0530 0000-0002-1800-… orcid.org       
##  9 https://orcid.org/0000-0003-2915-3169 0000-0003-2915-… orcid.org       
## 10 https://orcid.org/0000-0002-4243-8807 0000-0002-4243-… orcid.org       
## # ... with 90 more rows
…
keywords 10

We will often see this with ORCID and in some cases fields may be dominated by NULLs. For example, according to ORCID only about 2% of the 3 million ORCID ids in 2017 included a public email address.1 Researchers, including this one, are sick of endless academic spam and so will often choose not make their emails public.

To deal with the data frames with different numbers of rows we will start by creating a table of unique ids from ORCID path. One thing to watch out for here is that a seemingly valid input ORCID may return an NA. In the case of the john smith data there was one case of this which seemed to be a record flagged for removal. We can handle this with tidyr::drop_na().

ids <- bind_rows(smith_employ, smith_education, smith_keywords) %>% 
  mutate(duplicated = duplicated(source_source_orcid_path)) %>% 
  filter(duplicated == FALSE) %>% 
  select(source_source_orcid_path) %>% 
  drop_na()
ids

## # A tibble: 23 x 1
##    source_source_orcid_path
##    <chr>                   
##  1 0000-0002-3335-9488     
##  2 0000-0001-7793-0079     
##  3 0000-0003-0910-8475     
##  4 0000-0002-8384-3964     
##  5 0000-0002-1963-4092     
##  6 0000-0003-3628-444X     
##  7 0000-0003-0079-9695     
##  8 0000-0002-4216-1107     
##  9 0000-0001-9684-8847     
## 10 0000-0002-0888-1274     
## # ... with 13 more rows

When we have the unique ids we can use dplyr::left_join() to create a single data frame. If table joins are new to you in R try this chapter of R for Data Science. Here we place our ids on the left hand side and the other tables on the right hand side will be joined where there is a shared source_source_orcid_path.

result <- left_join(ids, smith_employ, by = "source_source_orcid_path") %>%
  left_join(., smith_education, by = "source_source_orcid_path") %>%
  left_join(., smith_keywords, by = "source_source_orcid_path")
result

## # A tibble: 23 x 4
##    source_source_orcid_path employment        education         keyword   
##    <chr>                    <list>            <list>            <list>    
##  1 0000-0002-3335-9488      <tibble [1 × 33]> <NULL>            <tibble […
##  2 0000-0001-7793-0079      <tibble [3 × 33]> <tibble [1 × 30]> <NULL>    
##  3 0000-0003-0910-8475      <tibble [1 × 33]> <tibble [2 × 30]> <NULL>    
##  4 0000-0002-8384-3964      <tibble [1 × 33]> <tibble [1 × 30]> <NULL>    
##  5 0000-0002-1963-4092      <tibble [1 × 33]> <tibble [1 × 30]> <tibble […
##  6 0000-0003-3628-444X      <tibble [1 × 33]> <tibble [1 × 30]> <NULL>    
##  7 0000-0003-0079-9695      <tibble [1 × 33]> <NULL>            <tibble […
##  8 0000-0002-4216-1107      <tibble [1 × 33]> <tibble [4 × 30]> <NULL>    
##  9 0000-0001-9684-8847      <tibble [1 × 33]> <tibble [1 × 30]> <NULL>    
## 10 0000-0002-0888-1274      <tibble [1 × 33]> <tibble [2 × 30]> <NULL>    
## # ... with 13 more rows
…
pubs <- kenya_works %>%
  map2_df(., names(kenya_works), ~ mutate(.x, orcid_id = .y)) %>% 
  janitor::clean_names()

Another way to do the same thing with less typing is to use the newer purrr::imap function which is a shorthand for map2_df(x, names(x), ...).

pubs <- kenya_works %>% 
  imap_dfr(~mutate(.x, orcid_id = .y)) %>% 
  janitor::clean_names()

We now have a single data frame with the publications that keeps the orcid_id as the key. Let’s take a look at who has the most works.

pubs %>% count(orcid_id, sort = TRUE)

## # A tibble: 36 x 2
##    orcid_id                n
##    <chr>               <int>
##  1 0000-0001-7513-0887   125
##  2 0000-0001-6916-0000   103
##  3 0000-0002-2146-5726   100
##  4 0000-0002-7793-8625   100
##  5 0000-0002-3958-0343    64
##  6 0000-0002-1921-0724    51
##  7 0000-0002-7486-4763    44
##  8 0000-0003-4024-0976    44
##  9 0000-0003-4864-5150    42
## 10 0000-0002-0123-8497    30
## # ... with 26 more rows

We can take a look at the top result based on the count of records for the ORCID ID. Note that the count above is a count of entries linked to the ORCID ID and does not necessarily add up to a count of publications (it actually over counts). One of the top researchers is Daniel Masiga who has been working on Leishmaniasis in Baringo and Nakuru countries in Kenya. Let’s take a look at his public profile with browse or by opening the permanent link to the profile at https://orcid.org/0000-0001-7513-0887.

browse("0000-0001-7513-0887")

Let’s take a look at the titles of works that include reference to Kenya.

pubs %>% mutate(kenya = str_detect(title_title_value, pattern = "Kenya")) %>% 
  filter(kenya == TRUE) %>% 
  select(title_title_value)

## # A tibble: 47 x 1
##    title_title_value                                                      
##    <chr>                                                                  
##  1 Size-dependent distribution and feeding habits of Terebralia palustris…
##  2 Spatial diversity of nematode and copepod genera of the coral degradat…
##  3 Nematode community structure along the continental slope off the Kenya…
##  4 New Desmodoridae (Nematoda: Desmodoroidea): three new species from Cer…
##  5 Papillonema danieli gen. et sp. n. and Papillonema clavatum (Gerlach, …
##  6 Unraveling Host-Vector-Arbovirus Interactions by Two-Gene High Resolut…
##  7 Unraveling host-vector-arbovirus interactions by two-gene high resolut…
##  8 Blood meal analysis and virus detection in blood-fed mosquitoes collec…
##  9 Blood meal analysis and virus detection in blood-fed mosquitoes collec…
## 10 High-resolution melting analysis reveals low Plasmodium parasitaemia i…
## # ... with 37 more rows
…
doi <- doi %>% filter(external_id_type == "doi") %>% 
  select(external_id_value)

You will need to install.packages("rcrossref") and load the library to generate the data.

library(rcrossref)
crossref_kenya <- rcrossref::cr_works(doi$external_id_value)

As the function churns through the 690 dois warning messages will pop up with things like 404: Resource not found. - (115.001086)404. I got 9 of these on this test. We can easily access this data.

crossref_kenya <- crossref_kenya$data %>% 
  janitor::clean_names()
crossref_kenya

## # A tibble: 681 x 34
##    alternative_id  container_title   created deposited doi   indexed issn 
##    <chr>           <chr>             <chr>   <chr>     <chr> <chr>   <chr>
##  1 10.1242/jeb.17… The Journal of E… 2018-0… 2018-07-… 10.1… 2018-0… 0022…
##  2 10.7554/eLife.… eLife             2018-0… 2018-04-… 10.7… 2018-0… 2050…
##  3 10.1242/jeb.17… The Journal of E… 2017-1… 2018-02-… 10.1… 2018-0… 0022…
##  4 <NA>            Bild - Ton - Rhy… 2017-0… 2017-04-… 10.1… 2018-0… <NA> 
##  5 <NA>            2016 IEEE Biomed… 2017-0… 2017-12-… 10.1… 2018-0… <NA> 
##  6 <NA>            PLOS Biology      2016-0… 2017-06-… 10.1… 2018-0… 1545…
##  7 <NA>            Frontiers in Beh… 2016-0… 2017-06-… 10.3… 2018-0… 1662…
##  8 <NA>            Bat Bioacoustics… 2016-0… 2017-06-… 10.1… 2018-0… 0947…
##  9 <NA>            Frontiers in Phy… 2014-0… 2015-02-… 10.3… 2018-0… 1664…
## 10 <NA>            Frontiers in Psy… 2014-0… 2017-06-… 10.3… 2018-0… 1664…
## # ... with 671 more rows, and 27 more variables: issued <chr>,
## #   license_date <chr>, license_url <chr>, license_delay_in_days <chr>,
## #   license_content_version <chr>, member <chr>, page <chr>, prefix <chr>,
## #   publisher <chr>, reference_count <chr>, score <chr>, source <chr>,
## #   subject <chr>, title <chr>, type <chr>, url <chr>, author <list>,
## #   funder <list>, link <list>, archive <chr>, volume <chr>,
## #   abstract <chr>, issue <chr>, isbn <chr>, update_policy <chr>,
## #   assertion <list>, subtitle <chr>

Let’s take a look at the journals

crossref_kenya %>% 
  count(container_title, sort = TRUE)

## # A tibble: 293 x 2
##    container_title                                                       n
##    <chr>                                                             <int>
##  1 PLoS ONE                                                             22
##  2 Physical Review D                                                    21
##  3 The Journal of the Acoustical Society of America                     16
##  4 Transportation Research Record: Journal of the Transportation Re…    15
##  5 PLoS Neglected Tropical Diseases                                     14
##  6 PLOS ONE                                                             10
##  7 Leukemia                                                              9
##  8 The Journal of Immunology                                             9
##  9 Journal of Comparative Physiology A                                   8
## 10 Accident Analysis & Prevention                                        7
## # ... with 283 more rows
…
