…
If you would like to explore the drones dataset try this. First make sure you have devtools.

install.packages("devtools")

Then install from github with:

devtools::install_github("poldham/drones")

We will use the applicants table. This contains a column called applicants_cleaned that I have previously mainly cleaned up.

library(drones)
applicants %>% 
  select(applicants_cleaned)

## # A tibble: 18,970 x 1
##    applicants_cleaned                         
##    <chr>                                      
##  1 SHENZHEN HUBSAN TECHNOLOGY CO. LTD.        
##  2 Intel Corporation                          
##  3 YOKOGAWA ELECTRIC CORPORATION              
##  4 NETWORK PERFORMANCE RESEARCH GROUP LLC     
##  5 NETWORK PERFORMANCE RESEARCH GROUP LLC     
##  6 Choi Hae-Yong                              
##  7 Ziva Corporation                           
##  8 WiTricity Corporation                      
##  9 Thales                                     
## 10 International Business Machines Corporation
## # ... with 18,960 more rows
…
